[
  {
    "eventTime": "2022.11.01",
    "title": "白鵬引退宮城野襲名披露大相撲一般チケット販売開始",
    "content": "この度、⽩鵬引退相撲事務局は「⽩鵬引退宮城野襲名披露⼤相撲」一般チケットを販売開始いたしました。"
  },
  {
    "eventTime": "2022.11.01",
    "title": "白鵬引退宮城野襲名披露大相撲公式サイト公開",
    "content": "この度、⽩鵬引退相撲事務局は「⽩鵬引退宮城野襲名披露⼤相撲」公式サイトを公開いたしました。最後の大相撲に向けた最新情報をお届けいたします。"
  },
  {
    "eventTime": "2022.09.05",
    "title": "白鵬引退宮城野襲名披露大相撲開催決定",
    "content": "この度、⽩鵬引退相撲事務局は「⽩鵬引退宮城野襲名披露⼤相撲」⽩鵬断髪式を2023年1⽉28 ⽇（⼟）に両国国技館において開催することとなりました。"
  }
]
